shijian,job id,task id,event,prior,cpu,mem,end time
0,1317485965,1,1,9,0.006248,0.006058,5000000000
0,3544756919,0,1,9,0.03125,0.01151,5000000000
0,3936670257,12,1,1,0.01874,0.01865,5000000000
0,4916863910,16,1,8,0.04529,0.01193,5000000000
0,5544437477,56,1,9,0.0625,0.01749,5000000000
0,5546501684,79,1,1,0.0625,0.06677,5000000000
0,5961345529,98,1,9,0.125,0.03516,5000000000
0,6035313565,0,1,8,0.2063,0.06921,5000000000
0,6238340468,80,1,0,0.0625,0.03961,5000000000
1442197262,6251725155,1008,1,2,0.02499,0.02545,1820003645
2140248324,6251784940,1757,1,2,0.02499,0.02545,2560391514
2467327536,6251841674,7,1,2,0.009369,0.01048,2574532603
3239658828,6251882848,506,1,2,0.02499,0.03339,3488907206
3853055087,6251915193,576,1,2,0.02499,0.03339,4039142675
4188145859,6251933641,958,1,2,0.02499,0.02545,10000000000000000000
